Comp Bio Project 1
…
The select function was used to find the correlations between each variable by only selecting those values that are numeric in the combined dataset. According to the correlation coefficients, there is a strong negative correlation between life expectancy and child-mortality. Therefore, as the life expectancy goes up, the child-mortality rate goes down. Furthermore, there is a strong positive correlation between ferility rate and child mortality. Therefore, as the ferility rate goes up, the child mortality rate also goes up. Finally, there is a strong (but weaker than the other correlations) negative correlation between ferility rate and life expectancy. Therefore, as the life expectancy goes up, the feritility rate goes down.

Combined_Data %>% group_by(country) %>% summarize(mean(child_mortality,na.rm=T))

## `summarise()` ungrouping output (override with `.groups` argument)

## # A tibble: 195 x 2
##    country             `mean(child_mortality, na.rm = T)`
##    <chr>                                            <dbl>
##  1 Afghanistan                                      98.7 
##  2 Albania                                          16.7 
##  3 Algeria                                          31.1 
##  4 Andorra                                           4.76
##  5 Angola                                          145.  
##  6 Antigua and Barbuda                              11.2 
##  7 Argentina                                        15.5 
##  8 Armenia                                          21.6 
##  9 Australia                                         5.16
## 10 Austria                                           4.61
## #  with 185 more rows

By using the group_by() and summarize() function, the mean child mortality rates for each country during the years 2000-2015 can be found. Based on the table, the country with the highest child mortality rate is Sierra Leone (181.5), and the country with the lowest child mortality rate is Iceland (2.9725).

Combined_Data %>% filter(year=="2007") %>% arrange(desc(life_expectancy,na.rm=T))

## # A tibble: 195 x 90
##    country `2016` `2017` `2018` `2019` `2020` `2021` `2022` `2023` `2024` `2025`
##    <chr>    <dbl>  <dbl>  <dbl>  <dbl>  <dbl>  <dbl>  <dbl>  <dbl>  <dbl>  <dbl>
##  1 Afghan  67.5   64.7   62.3   60.1   58.1   56.1   54.2   52.4   50.6   49   
##  2 Albania   9.27   9.02   8.82   8.68   8.52   8.36   8.19   8.01   7.83   7.65
##  3 Algeria  24.5   24     23.5   22.8   22.2   21.6   20.9   20.4   19.8   19.2 
##  4 Andorra   3.14   3.01   2.89   2.87   2.85   2.82   2.79   2.77   2.75   2.72
##  5 Angola   84     80.4   77.2   74.5   72.3   70.4   68.6   67     65.4   63.7 
##  6 Antigu   6.97   6.69   6.44   6.25   6.09   5.95   5.82   5.71   5.6    5.49
##  7 Argent  10.9   10.4    9.94   9.66   9.4    9.16   8.94   8.72   8.52   8.32
##  8 Armenia  13.7   13     12.4   12.1   11.7   11.4   11.2   10.9   10.6   10.4 
##  9 Austra   3.79   3.74   3.69   3.59   3.5    3.41   3.33   3.25   3.18   3.11
## 10 Austria   3.65   3.58   3.52   3.37   3.21   3.04   2.87   2.73   2.62   2.53
## #  with 185 more rows, and 79 more variables: `2026` <dbl>, `2027` <dbl>,
## #   `2028` <dbl>, `2029` <dbl>, `2030` <dbl>, `2031` <dbl>, `2032` <dbl>,
## #   `2033` <dbl>, `2034` <dbl>, `2035` <dbl>, `2036` <dbl>, `2037` <dbl>,
## #   `2038` <dbl>, `2039` <dbl>, `2040` <dbl>, `2041` <dbl>, `2042` <dbl>,
## #   `2043` <dbl>, `2044` <dbl>, `2045` <dbl>, `2046` <dbl>, `2047` <dbl>,
## #   `2048` <dbl>, `2049` <dbl>, `2050` <dbl>, `2051` <dbl>, `2052` <dbl>,
## #   `2053` <dbl>, `2054` <dbl>, `2055` <dbl>, `2056` <dbl>, `2057` <dbl>,
## #   `2058` <dbl>, `2059` <dbl>, `2060` <dbl>, `2061` <dbl>, `2062` <dbl>,
## #   `2063` <dbl>, `2064` <dbl>, `2065` <dbl>, `2066` <dbl>, `2067` <dbl>,
## #   `2068` <dbl>, `2069` <dbl>, `2070` <dbl>, `2071` <dbl>, `2072` <dbl>,
## #   `2073` <dbl>, `2074` <dbl>, `2075` <dbl>, `2076` <dbl>, `2077` <dbl>,
## #   `2078` <dbl>, `2079` <dbl>, `2080` <dbl>, `2081` <dbl>, `2082` <dbl>,
## #   `2083` <dbl>, `2084` <dbl>, `2085` <dbl>, `2086` <dbl>, `2087` <dbl>,
## #   `2088` <dbl>, `2089` <dbl>, `2090` <dbl>, `2091` <dbl>, `2092` <dbl>,
## #   `2093` <dbl>, `2094` <dbl>, `2095` <dbl>, `2096` <dbl>, `2097` <dbl>,
## #   `2098` <dbl>, `2099` <dbl>, `2100` <dbl>, year <chr>,
## #   child_mortality <dbl>, life_expectancy <dbl>, fertility_rate <dbl>

By using the filter() function, only the child mortality rates, life expectancies, and fertility rates for each country from 2007 is shown. Furthermore, the arrange() function organizes this data in descending order based on life expectancy. I decided to do 2007 because this was the midpoint year in my dataset. Since the data was arranged in descending order, it was easy to tell that Japan has the longest life expectancy (82.8 years) while Eswatini has the shortest life expectancy (44.2 years).

Combined_Data %>% mutate(per_100_cases=child_mortality/10)

## # A tibble: 3,120 x 91
##    country `2016` `2017` `2018` `2019` `2020` `2021` `2022` `2023` `2024` `2025`
##    <chr>    <dbl>  <dbl>  <dbl>  <dbl>  <dbl>  <dbl>  <dbl>  <dbl>  <dbl>  <dbl>
##  1 Afghan   67.5   64.7   62.3   60.1   58.1   56.1   54.2   52.4   50.6     49
##  2 Afghan   67.5   64.7   62.3   60.1   58.1   56.1   54.2   52.4   50.6     49
##  3 Afghan   67.5   64.7   62.3   60.1   58.1   56.1   54.2   52.4   50.6     49
##  4 Afghan   67.5   64.7   62.3   60.1   58.1   56.1   54.2   52.4   50.6     49
##  5 Afghan   67.5   64.7   62.3   60.1   58.1   56.1   54.2   52.4   50.6     49
##  6 Afghan   67.5   64.7   62.3   60.1   58.1   56.1   54.2   52.4   50.6     49
##  7 Afghan   67.5   64.7   62.3   60.1   58.1   56.1   54.2   52.4   50.6     49
##  8 Afghan   67.5   64.7   62.3   60.1   58.1   56.1   54.2   52.4   50.6     49
##  9 Afghan   67.5   64.7   62.3   60.1   58.1   56.1   54.2   52.4   50.6     49
## 10 Afghan   67.5   64.7   62.3   60.1   58.1   56.1   54.2   52.4   50.6     49
## #  with 3,110 more rows, and 80 more variables: `2026` <dbl>, `2027` <dbl>,
## #   `2028` <dbl>, `2029` <dbl>, `2030` <dbl>, `2031` <dbl>, `2032` <dbl>,
## #   `2033` <dbl>, `2034` <dbl>, `2035` <dbl>, `2036` <dbl>, `2037` <dbl>,
## #   `2038` <dbl>, `2039` <dbl>, `2040` <dbl>, `2041` <dbl>, `2042` <dbl>,
## #   `2043` <dbl>, `2044` <dbl>, `2045` <dbl>, `2046` <dbl>, `2047` <dbl>,
## #   `2048` <dbl>, `2049` <dbl>, `2050` <dbl>, `2051` <dbl>, `2052` <dbl>,
## #   `2053` <dbl>, `2054` <dbl>, `2055` <dbl>, `2056` <dbl>, `2057` <dbl>,
## #   `2058` <dbl>, `2059` <dbl>, `2060` <dbl>, `2061` <dbl>, `2062` <dbl>,
## #   `2063` <dbl>, `2064` <dbl>, `2065` <dbl>, `2066` <dbl>, `2067` <dbl>,
…
